0,8.012917999906062
1,6.8660329702906004
2,5.678972048849748
3,5.202861187605741
4,5.088278258795807
5,5.0758099213158046
6,5.077633116050747
7,5.005558859486247
8,4.989565476146839
9,4.973139445362424
